Chapter 8 COVID-19 data | Rmarkdown and Shiny
…
## ── Conflicts ────────────────────────────────────────── tidyverse_conflicts() ──
## x dplyr::between()        masks data.table::between()
## x dplyr::filter()         masks stats::filter()
## x dplyr::first()          masks data.table::first()
## x dplyr::lag()            masks stats::lag()
## x dplyr::last()           masks data.table::last()
## x data.table::transpose() masks purrr::transpose()

8.1.2 Load data and Processing data

confirmed_US <- tibble(fread("https://raw.githubusercontent.com/CSSEGISandData/COVID-19/master/csse_covid_19_data/csse_covid_19_time_series/time_series_covid19_confirmed_US.csv"))
confirmed_US

## # A tibble: 3,342 × 707
##         UID iso2  iso3  code3  FIPS Admin2   Province_State Country_Region   Lat
##       <int> <chr> <chr> <int> <dbl> <chr>    <chr>          <chr>          <dbl>
##  1 84001001 US    USA     840  1001 Autauga  Alabama        US              32.5
##  2 84001003 US    USA     840  1003 Baldwin  Alabama        US              30.7
##  3 84001005 US    USA     840  1005 Barbour  Alabama        US              31.9
##  4 84001007 US    USA     840  1007 Bibb     Alabama        US              33.0
##  5 84001009 US    USA     840  1009 Blount   Alabama        US              34.0
##  6 84001011 US    USA     840  1011 Bullock  Alabama        US              32.1
##  7 84001013 US    USA     840  1013 Butler   Alabama        US              31.8
##  8 84001015 US    USA     840  1015 Calhoun  Alabama        US              33.8
##  9 84001017 US    USA     840  1017 Chambers Alabama        US              32.9
## 10 84001019 US    USA     840  1019 Cherokee Alabama        US              34.2
## # … with 3,332 more rows, and 698 more variables: Long_ <dbl>,
## #   Combined_Key <chr>, 1/22/20 <int>, 1/23/20 <int>, 1/24/20 <int>,
## #   1/25/20 <int>, 1/26/20 <int>, 1/27/20 <int>, 1/28/20 <int>, 1/29/20 <int>,
## #   1/30/20 <int>, 1/31/20 <int>, 2/1/20 <int>, 2/2/20 <int>, 2/3/20 <int>,
## #   2/4/20 <int>, 2/5/20 <int>, 2/6/20 <int>, 2/7/20 <int>, 2/8/20 <int>,
## #   2/9/20 <int>, 2/10/20 <int>, 2/11/20 <int>, 2/12/20 <int>, 2/13/20 <int>,
## #   2/14/20 <int>, 2/15/20 <int>, 2/16/20 <int>, 2/17/20 <int>, …

deaths_US <- tibble(fread("https://raw.githubusercontent.com/CSSEGISandData/COVID-19/master/csse_covid_19_data/csse_covid_19_time_series/time_series_covid19_deaths_US.csv"))
deaths_US

## # A tibble: 3,342 × 708
##         UID iso2  iso3  code3  FIPS Admin2   Province_State Country_Region   Lat
##       <int> <chr> <chr> <int> <dbl> <chr>    <chr>          <chr>          <dbl>
##  1 84001001 US    USA     840  1001 Autauga  Alabama        US              32.5
##  2 84001003 US    USA     840  1003 Baldwin  Alabama        US              30.7
##  3 84001005 US    USA     840  1005 Barbour  Alabama        US              31.9
##  4 84001007 US    USA     840  1007 Bibb     Alabama        US              33.0
##  5 84001009 US    USA     840  1009 Blount   Alabama        US              34.0
##  6 84001011 US    USA     840  1011 Bullock  Alabama        US              32.1
##  7 84001013 US    USA     840  1013 Butler   Alabama        US              31.8
##  8 84001015 US    USA     840  1015 Calhoun  Alabama        US              33.8
##  9 84001017 US    USA     840  1017 Chambers Alabama        US              32.9
## 10 84001019 US    USA     840  1019 Cherokee Alabama        US              34.2
## # … with 3,332 more rows, and 699 more variables: Long_ <dbl>,
## #   Combined_Key <chr>, Population <int>, 1/22/20 <int>, 1/23/20 <int>,
## #   1/24/20 <int>, 1/25/20 <int>, 1/26/20 <int>, 1/27/20 <int>, 1/28/20 <int>,
## #   1/29/20 <int>, 1/30/20 <int>, 1/31/20 <int>, 2/1/20 <int>, 2/2/20 <int>,
## #   2/3/20 <int>, 2/4/20 <int>, 2/5/20 <int>, 2/6/20 <int>, 2/7/20 <int>,
## #   2/8/20 <int>, 2/9/20 <int>, 2/10/20 <int>, 2/11/20 <int>, 2/12/20 <int>,
## #   2/13/20 <int>, 2/14/20 <int>, 2/15/20 <int>, 2/16/20 <int>, …

p <- ncol(confirmed_US)
confirmed <- confirmed_US[, c(11, p - 28, p)]
colnames(confirmed) <- c("us_county", "total_cases_28", "total_cases")  
confirmed2 <- confirmed  %>%
  mutate(new_cases_28 = total_cases - total_cases_28) %>%
  select(-total_cases_28)
confirmed2

## # A tibble: 3,342 × 3
##    us_county             total_cases new_cases_28
##    <chr>                       <int>        <int>
##  1 Autauga, Alabama, US        10661          204
##  2 Baldwin, Alabama, US        38457          498
##  3 Barbour, Alabama, US         3722           62
##  4 Bibb, Alabama, US            4393           60
##  5 Blount, Alabama, US         10941          320
##  6 Bullock, Alabama, US         1540           16
##  7 Butler, Alabama, US          3487           78
##  8 Calhoun, Alabama, US        22772          250
##  9 Chambers, Alabama, US        5856           61
## 10 Cherokee, Alabama, US        3259          126
## # … with 3,332 more rows

q <- ncol(deaths_US)
deaths <- deaths_US[, c(11:12, q - 28, q)]
colnames(deaths) <- c("us_county", "population",  "total_deaths_28", "total_deaths")
deaths2 <- deaths %>%
  mutate(new_deaths_28 = total_deaths - total_deaths_28) %>%
  select(-total_deaths_28)
deaths2

## # A tibble: 3,342 × 4
##    us_county             population total_deaths new_deaths_28
##    <chr>                      <int>        <int>         <int>
##  1 Autauga, Alabama, US       55869          159             3
##  2 Baldwin, Alabama, US      223234          592             6
##  3 Barbour, Alabama, US       24686           81             2
##  4 Bibb, Alabama, US          22394           95             2
##  5 Blount, Alabama, US        57826          194             4
##  6 Bullock, Alabama, US       10101           46             1
##  7 Butler, Alabama, US        19448          102             2
##  8 Calhoun, Alabama, US      113605          525             7
##  9 Chambers, Alabama, US      33254          143             1
## 10 Cherokee, Alabama, US      26196           64             2
## # … with 3,332 more rows

8.1.3 Combine data

full_data <- full_join(confirmed2, deaths2) %>%
  mutate(
    incidence = round(total_cases / population * 1e5, digits = 2), 
    case_fatality_ratio = round(total_deaths / total_cases * 100, digits = 2)
  )

## Joining, by = "us_county"

full_data

## # A tibble: 3,342 × 8
##    us_county      total_cases new_cases_28 population total_deaths new_deaths_28
##    <chr>                <int>        <int>      <int>        <int>         <int>
##  1 Autauga, Alab…       10661          204      55869          159             3
##  2 Baldwin, Alab…       38457          498     223234          592             6
##  3 Barbour, Alab…        3722           62      24686           81             2
##  4 Bibb, Alabama…        4393           60      22394           95             2
##  5 Blount, Alaba…       10941          320      57826          194             4
##  6 Bullock, Alab…        1540           16      10101           46             1
##  7 Butler, Alaba…        3487           78      19448          102             2
##  8 Calhoun, Alab…       22772          250     113605          525             7
##  9 Chambers, Ala…        5856           61      33254          143             1
## 10 Cherokee, Ala…        3259          126      26196           64             2
## # … with 3,332 more rows, and 2 more variables: incidence <dbl>,
## #   case_fatality_ratio <dbl>
…
confirmed_global_weekly <- new_cases_global_weekly %>% # 导入全球数据
  filter(`Province/State` == "") %>% # 筛选行 
  select(!`Province/State`) %>% # 筛选列
  pivot_longer(!`Country/Region`, names_to = "Date", values_to = "Confirmed") %>% # wide to long
  
  rename(Country_Region = `Country/Region`) %>% # 左新右旧
  mutate(Date = lubridate::mdy(Date)) %>% # mutate 替换成 YMD
  arrange(Country_Region, Date) # 时间排序从小到大（-Date从大到小）
confirmed_global_weekly

## # A tibble: 19,107 × 3
##    Country_Region Date       Confirmed
##    <chr>          <date>         <int>
##  1 Afghanistan    2020-01-26         0
##  2 Afghanistan    2020-02-02         0
##  3 Afghanistan    2020-02-09         0
##  4 Afghanistan    2020-02-16         0
##  5 Afghanistan    2020-02-23         0
##  6 Afghanistan    2020-03-01         5
##  7 Afghanistan    2020-03-08         3
##  8 Afghanistan    2020-03-15        12
##  9 Afghanistan    2020-03-22        14
## 10 Afghanistan    2020-03-29        80
## # … with 19,097 more rows
…
death_global_daily <- death_global %>%
  pivot_longer(
    cols = 5:ncol(.),
    names_to = "date",
    values_to = "cases"
  ) %>%
  mutate(date = lubridate::mdy(date)) %>%
  janitor::clean_names() %>%
  group_by(country_region, date) %>%
  summarise(cases = sum(cases),.groups = "drop") %>%
  ungroup()

death_global_daily

## # A tibble: 136,416 × 3
##    country_region date       cases
##    <chr>          <date>     <int>
##  1 Afghanistan    2020-01-22     0
##  2 Afghanistan    2020-01-23     0
##  3 Afghanistan    2020-01-24     0
##  4 Afghanistan    2020-01-25     0
##  5 Afghanistan    2020-01-26     0
##  6 Afghanistan    2020-01-27     0
##  7 Afghanistan    2020-01-28     0
##  8 Afghanistan    2020-01-29     0
##  9 Afghanistan    2020-01-30     0
## 10 Afghanistan    2020-01-31     0
## # … with 136,406 more rows
