Chapter 9 Plots and Maps | Rmarkdown and Shiny
…
9.2.2.2 绘制美国地图数据

基于前一章节的数据，此处进行美国新冠数据的处理，得到美国各个州的确诊以及死亡人数，从而计算死亡率，得到死亡率。

confirmed_US <- tibble(fread("https://raw.githubusercontent.com/CSSEGISandData/COVID-19/master/csse_covid_19_data/csse_covid_19_time_series/time_series_covid19_confirmed_US.csv"))
deaths_US <- tibble(fread("https://raw.githubusercontent.com/CSSEGISandData/COVID-19/master/csse_covid_19_data/csse_covid_19_time_series/time_series_covid19_deaths_US.csv"))

p <- ncol(confirmed_US)
confirmed <- confirmed_US[, c(6:7,9:10, nc)]
colnames(confirmed) <- c("state", "province", "Lat","Long", "total_cases")  
confirmed

## # A tibble: 3,342 × 5
##    state    province   Lat  Long total_cases
##    <chr>    <chr>    <dbl> <dbl>       <int>
##  1 Autauga  Alabama   32.5 -86.6       11184
##  2 Baldwin  Alabama   30.7 -87.7       40396
##  3 Barbour  Alabama   31.9 -85.4        3932
##  4 Bibb     Alabama   33.0 -87.1        4576
##  5 Blount   Alabama   34.0 -86.6       11338
##  6 Bullock  Alabama   32.1 -85.7        1700
##  7 Butler   Alabama   31.8 -86.7        3654
##  8 Calhoun  Alabama   33.8 -85.8       23629
##  9 Chambers Alabama   32.9 -85.4        6278
## 10 Cherokee Alabama   34.2 -85.6        3418
## # … with 3,332 more rows

q <- ncol(deaths_US)
deaths <- deaths_US[, c(6:7,9:10, nc)]
colnames(deaths) <- c("state", "province", "Lat","Long", "total_deaths")
deaths

## # A tibble: 3,342 × 5
##    state    province   Lat  Long total_deaths
##    <chr>    <chr>    <dbl> <dbl>        <int>
##  1 Autauga  Alabama   32.5 -86.6          160
##  2 Baldwin  Alabama   30.7 -87.7          593
##  3 Barbour  Alabama   31.9 -85.4           81
##  4 Bibb     Alabama   33.0 -87.1           95
##  5 Blount   Alabama   34.0 -86.6          198
##  6 Bullock  Alabama   32.1 -85.7           46
##  7 Butler   Alabama   31.8 -86.7          102
##  8 Calhoun  Alabama   33.8 -85.8          532
##  9 Chambers Alabama   32.9 -85.4          147
## 10 Cherokee Alabama   34.2 -85.6           65
## # … with 3,332 more rows

full_data <- full_join(confirmed, deaths) %>%
  mutate(
    rate = round(total_deaths/total_cases , digits = 5)
  )

## Joining, by = c("state", "province", "Lat", "Long")

full_data

## # A tibble: 3,647 × 7
##    state    province   Lat  Long total_cases total_deaths   rate
##    <chr>    <chr>    <dbl> <dbl>       <int>        <int>  <dbl>
##  1 Autauga  Alabama   32.5 -86.6       11184          160 0.0143
##  2 Baldwin  Alabama   30.7 -87.7       40396          593 0.0147
##  3 Barbour  Alabama   31.9 -85.4        3932           81 0.0206
##  4 Bibb     Alabama   33.0 -87.1        4576           95 0.0208
##  5 Blount   Alabama   34.0 -86.6       11338          198 0.0175
##  6 Bullock  Alabama   32.1 -85.7        1700           46 0.0271
##  7 Butler   Alabama   31.8 -86.7        3654          102 0.0279
##  8 Calhoun  Alabama   33.8 -85.8       23629          532 0.0225
##  9 Chambers Alabama   32.9 -85.4        6278          147 0.0234
## 10 Cherokee Alabama   34.2 -85.6        3418           65 0.0190
## # … with 3,637 more rows
…
